<?xml version="1.0" encoding="UTF-8" standalone="no"?>
<!DOCTYPE svg PUBLIC "-//W3C//DTD SVG 1.1//EN"
 "http://www.w3.org/Graphics/SVG/1.1/DTD/svg11.dtd">
<!-- Generated by graphviz version 2.38.0 (20140413.2041)
 -->
<!-- Title: controllers_diagram Pages: 1 -->
<svg width="459pt" height="341pt"
 viewBox="0.00 0.00 459.09 341.00" xmlns="http://www.w3.org/2000/svg" xmlns:xlink="http://www.w3.org/1999/xlink">
<g id="graph0" class="graph" transform="scale(1 1) rotate(0) translate(157.694 161)">
<title>controllers_diagram</title>
<polygon fill="none" stroke="none" points="-157.694,180 -157.694,-161 301.392,-161 301.392,180 -157.694,180"/>
<!-- _diagram_info -->
<g id="node1" class="node"><title>_diagram_info</title>
<text text-anchor="start" x="-102" y="-19.6" font-family="Times,serif" font-size="13.00">Controllers diagram</text>
<text text-anchor="start" x="-102" y="-5.6" font-family="Times,serif" font-size="13.00">Date: Oct 29 2015 &#45; 15:52</text>
<text text-anchor="start" x="-102" y="8.4" font-family="Times,serif" font-size="13.00">Migration version: 20151029115721</text>
<text text-anchor="start" x="-102" y="22.4" font-family="Times,serif" font-size="13.00">Generated by RailRoady 1.4.0</text>
<text text-anchor="start" x="-102" y="36.4" font-family="Times,serif" font-size="13.00">http://railroady.prestonlee.com</text>
</g>
<!-- BillsController -->
<g id="node2" class="node"><title>BillsController</title>
<ellipse fill="none" stroke="black" cx="-90" cy="92" rx="63.8893" ry="18"/>
<text text-anchor="middle" x="-90" y="95.7" font-family="Times,serif" font-size="14.00">BillsController</text>
</g>
<!-- EquipmentsController -->
<g id="node3" class="node"><title>EquipmentsController</title>
<ellipse fill="none" stroke="black" cx="89" cy="92" rx="89.0842" ry="18"/>
<text text-anchor="middle" x="89" y="95.7" font-family="Times,serif" font-size="14.00">EquipmentsController</text>
</g>
<!-- AlertsController -->
<g id="node4" class="node"><title>AlertsController</title>
<ellipse fill="none" stroke="black" cx="68" cy="158" rx="68.4888" ry="18"/>
<text text-anchor="middle" x="68" y="161.7" font-family="Times,serif" font-size="14.00">AlertsController</text>
</g>
<!-- ApplicationController -->
<g id="node5" class="node"><title>ApplicationController</title>
<ellipse fill="none" stroke="black" cx="209" cy="-139" rx="88.2844" ry="18"/>
<text text-anchor="middle" x="209" y="-135.3" font-family="Times,serif" font-size="14.00">ApplicationController</text>
</g>
<!-- AttachmentsController -->
<g id="node6" class="node"><title>AttachmentsController</title>
<ellipse fill="none" stroke="black" cx="147" cy="-73" rx="91.784" ry="18"/>
<text text-anchor="middle" x="147" y="-69.3" font-family="Times,serif" font-size="14.00">AttachmentsController</text>
</g>
<!-- PeopleController -->
<g id="node7" class="node"><title>PeopleController</title>
<ellipse fill="none" stroke="black" cx="-39" cy="-128" rx="70.6878" ry="18"/>
<text text-anchor="middle" x="-39" y="-124.3" font-family="Times,serif" font-size="14.00">PeopleController</text>
</g>
<!-- PanelsController -->
<g id="node8" class="node"><title>PanelsController</title>
<ellipse fill="none" stroke="black" cx="202" cy="26" rx="69.5877" ry="18"/>
<text text-anchor="middle" x="202" y="29.7" font-family="Times,serif" font-size="14.00">PanelsController</text>
</g>
</g>
</svg>
